[
    {
        "id": 1,
        "parentId": 0,
        "name": "Warrior",
        "color": "red"
    },
    {
        "id": 5,
        "parentId": 1,
        "name": "Fighter",
        "color": "blue"
    },
    {
        "id": 6,
        "parentId": 1,
        "name": "Paladin",
        "color": "lightblue"
    },
    {
        "id": 7,
        "parentId": 1,
        "name": "Ranger",
        "color": "lightgreen"
    },
    {
        "id": 2,
        "parentId": 0,
        "name": "Wizard",
        "color": "green"
    },
    {
        "id": 8,
        "parentId": 2,
        "name": "Mage",
        "color": "grey"
    },
    {
        "id": 9,
        "parentId": 2,
        "name": "Specialist wizard",
        "color": "lightgrey"
    },
    {
        "id": 3,
        "parentId": 0,
        "name": "Priest",
        "color": "white"
    },
    {
        "id": 10,
        "parentId": 3,
        "name": "Cleric",
        "color": "red"
    },
    {
        "id": 11,
        "parentId": 3,
        "name": "Druid",
        "color": "green"
    },
    {
        "id": 12,
        "parentId": 3,
        "name": "Priest of specific mythos",
        "color": "white"
    },
    {
        "id": 15,
        "parentId": 13,
        "name": "Assassin",
        "color": "lightblue"
    },
    {
        "id": 4,
        "parentId": 0,
        "name": "Rogue",
        "color": "yellow"
    },
    {
        "id": 14,
        "parentId": 4,
        "name": "Bard",
        "color": "blue"
    },
    {
        "id": 13,
        "parentId": 4,
        "name": "Thief",
        "color": "yellow"
    }
]